name: "shadow_clip_quad"
tags: "quad"
vertex_program: "/dex/render/quads/quad.vp"
fragment_program: "/dex/render/lights/shadow_clip.fp"
vertex_space: VERTEX_SPACE_WORLD
vertex_constants {
  name: "mtx_view"
  type: CONSTANT_TYPE_VIEW
  value {
    x: 0.0
    y: 0.0
    z: 0.0
    w: 0.0
  }
}
vertex_constants {
  name: "mtx_proj"
  type: CONSTANT_TYPE_PROJECTION
  value {
    x: 0.0
    y: 0.0
    z: 0.0
    w: 0.0
  }
}
vertex_constants {
  name: "mtx_normal"
  type: CONSTANT_TYPE_NORMAL
  value {
    x: 0.0
    y: 0.0
    z: 0.0
    w: 0.0
  }
}
fragment_constants {
  name: "tint0"
  type: CONSTANT_TYPE_USER
  value {
    x: 1.0
    y: 1.0
    z: 1.0
    w: 1.0
  }
}
fragment_constants {
  name: "tint1"
  type: CONSTANT_TYPE_USER
  value {
    x: 1.0
    y: 1.0
    z: 1.0
    w: 1.0
  }
}
samplers {
  name: "tex0"
  wrap_u: WRAP_MODE_CLAMP_TO_EDGE
  wrap_v: WRAP_MODE_CLAMP_TO_EDGE
  filter_min: FILTER_MODE_MIN_LINEAR
  filter_mag: FILTER_MODE_MAG_LINEAR
  max_anisotropy: 1.0
}
samplers {
  name: "tex1"
  wrap_u: WRAP_MODE_CLAMP_TO_EDGE
  wrap_v: WRAP_MODE_CLAMP_TO_EDGE
  filter_min: FILTER_MODE_MIN_LINEAR
  filter_mag: FILTER_MODE_MAG_LINEAR
  max_anisotropy: 1.0
}
