name: "sprite"
tags: "shadow_clip"
vertex_program: "/builtins/materials/sprite.vp"
fragment_program: "/builtins/materials/sprite.fp"
vertex_space: VERTEX_SPACE_WORLD
vertex_constants {
  name: "view_proj"
  type: CONSTANT_TYPE_VIEWPROJ
}
fragment_constants {
  name: "tint"
  type: CONSTANT_TYPE_USER
  value {
    x: 1.0
    y: 1.0
    z: 1.0
    w: 1.0
  }
}
